,text_sent,text_clean,base_label,base_score,roberta_label,roberta_score,multilingual_label,multilingual_score,distilbert_label,distilbert_score,imdb_label,imdb_score
0,"on an exceptionally hot evening early in july a young man came out of the garret in which he lodged in s. place and walked slowly, as though in hesitation, towards k. bridge.",except hot even earli juli young man came garret lodg place walk slowli though hesit toward k bridg,NEGATIVE,0.9933308959007263,NEUTRAL,0.6924096345901489,3 stars,0.3727031648159027,love,0.5076643824577332,NEGATIVE,0.6845065951347351
1,he had successfully avoided meeting his landlady on the staircase.,success avoid meet landladi staircas,NEGATIVE,0.881320059299469,NEUTRAL,0.6327910423278809,1 star,0.5381409525871277,joy,0.9296602606773376,NEGATIVE,0.6511879563331604
2,"his garret was under the roof of a high, five-storied house and was more like a cupboard than a room.",garret roof high fivestori hous like cupboard room,NEGATIVE,0.9979888200759888,NEUTRAL,0.8359549641609192,5 stars,0.36024391651153564,fear,0.39666417241096497,NEGATIVE,0.6893435716629028
3,"the landlady who provided him with garret, dinners, and attendance, lived on the floor below, and every time he went out he was obliged to pass her kitchen, the door of which invariably stood open.",landladi provid garret dinner attend live floor everi time went oblig pass kitchen door invari stood open,NEGATIVE,0.9789924025535583,NEUTRAL,0.9048171639442444,1 star,0.5021412968635559,anger,0.715921938419342,NEGATIVE,0.6449031233787537
4,"and each time he passed, the young man had a sick, frightened feeling, which made him scowl and feel ashamed.",time pass young man sick frighten feel made scowl feel asham,NEGATIVE,0.995537281036377,NEGATIVE,0.8851734399795532,1 star,0.5591285824775696,anger,0.62679523229599,NEGATIVE,0.8285208344459534
5,"he was hopelessly in debt to his landlady, and was afraid of meeting her.",hopelessli debt landladi afraid meet,NEGATIVE,0.9712874889373779,NEGATIVE,0.550041913986206,1 star,0.7558245062828064,fear,0.9800578355789185,NEGATIVE,0.6821199655532837
6,"this was not because he was cowardly and abject, quite the contrary; but for some time past he had been in an overstrained irritable condition, verging on hypochondria.",cowardli abject quit contrari time past overstrain irrit condit verg hypochondria,NEGATIVE,0.9969848990440369,NEGATIVE,0.5162810683250427,1 star,0.6762228608131409,anger,0.8924009203910828,NEGATIVE,0.913982093334198
7,"he had become so completely absorbed in himself, and isolated from his fellows that he dreaded meeting, not only his landlady, but anyone at all.",becom complet absorb isol fellow dread meet landladi anyon,NEGATIVE,0.9187285304069519,NEUTRAL,0.8720030188560486,5 stars,0.5069264769554138,anger,0.48184338212013245,NEGATIVE,0.6796712279319763
8,"he was crushed by poverty, but the anxieties of his position had of late ceased to weigh upon him.",crush poverti anxieti posit late ceas weigh upon,NEGATIVE,0.9961442947387695,NEUTRAL,0.8288962841033936,2 stars,0.2705921530723572,anger,0.6949462890625,NEGATIVE,0.741736114025116
9,he had given up attending to matters of practical importance; he had lost all desire to do so.,given attend matter practic import lost desir,NEGATIVE,0.9987452030181885,NEUTRAL,0.6245070695877075,3 stars,0.2712238132953644,sadness,0.9926154613494873,NEGATIVE,0.7800354957580566
10,nothing that any landlady could do had a real terror for him.,noth landladi could real terror,NEGATIVE,0.9891999959945679,NEGATIVE,0.5688111782073975,1 star,0.5784153342247009,anger,0.5721779465675354,NEGATIVE,0.7058811187744141
11,"but to be stopped on the stairs, to be forced to listen to her trivial, irrelevant gossip, to pestering demands for payment, threats and complaints, and to rack his brains for excuses, to prevaricate, to lie--no, rather than that, he would creep down the stairs like a cat and slip out unseen.",stop stair forc listen trivial irrelev gossip pester demand payment threat complaint rack brain excus prevar lieno rather would creep stair like cat slip unseen,NEGATIVE,0.9991483688354492,NEGATIVE,0.5160106420516968,1 star,0.718641996383667,fear,0.8870483040809631,NEGATIVE,0.9388846755027771
12,"this evening, however, on coming out into the street, he became acutely aware of his fears.",even howev come street becam acut awar fear,NEGATIVE,0.9929867386817932,NEUTRAL,0.6453625559806824,1 star,0.45894530415534973,fear,0.8787755966186523,NEGATIVE,0.7186699509620667
13,"i want to attempt a thing _like that_ and am frightened by these trifles, he thought, with an odd smile.",want attempt thing like frighten trifl thought odd smile,NEGATIVE,0.9784533381462097,NEUTRAL,0.6824571490287781,1 star,0.26372697949409485,fear,0.792731523513794,NEGATIVE,0.809842050075531
14,"hm... yes, all is in a mans hands and he lets it all slip from cowardice, thats an axiom.",hm ye man hand let slip cowardic that axiom,NEGATIVE,0.9693769216537476,NEUTRAL,0.5088672637939453,1 star,0.44681525230407715,sadness,0.6172783374786377,NEGATIVE,0.7980237007141113
